%YAML 1.1
%TAG !u! tag:unity3d.com,2011:
--- !u!21 &2100000
Material:
  serializedVersion: 3
  m_ObjectHideFlags: 0
  m_PrefabParentObject: {fileID: 0}
  m_PrefabInternal: {fileID: 0}
  m_Name: RiverShader
  m_Shader: {fileID: 4800000, guid: 9f4beed5674192e4598ba72537a2603c, type: 3}
  m_ShaderKeywords: []
  m_SavedProperties:
    serializedVersion: 2
    m_TexEnvs:
      data:
        first:
          name: _MainTex
        second:
          m_Texture: {fileID: 2800000, guid: 77378c0db95da8a4d9888d192771763d, type: 3}
          m_Scale: {x: 1, y: 1}
          m_Offset: {x: 0, y: 0}
      data:
        first:
          name: _BumpMap
        second:
          m_Texture: {fileID: 2800000, guid: c3a93de5e6f12034b871bcb29a5ec7be, type: 3}
          m_Scale: {x: 5, y: .300000012}
          m_Offset: {x: 0, y: 0}
      data:
        first:
          name: _FlowMap
        second:
          m_Texture: {fileID: 0}
          m_Scale: {x: 1, y: 1}
          m_Offset: {x: 0, y: 0}
      data:
        first:
          name: _NoiseMap
        second:
          m_Texture: {fileID: 0}
          m_Scale: {x: 1, y: 1}
          m_Offset: {x: 0, y: 0}
      data:
        first:
          name: _WaveMap0
        second:
          m_Texture: {fileID: 0}
          m_Scale: {x: 1, y: 1}
          m_Offset: {x: 0, y: 0}
      data:
        first:
          name: _WaveMap1
        second:
          m_Texture: {fileID: 0}
          m_Scale: {x: 1, y: 1}
          m_Offset: {x: 0, y: 0}
      data:
        first:
          name: _ReflectMap
        second:
          m_Texture: {fileID: 2800000, guid: 1d2d6c9a3d9a0be4c91b0fbaf397952b, type: 3}
          m_Scale: {x: 1, y: 1}
          m_Offset: {x: 0, y: 0}
      data:
        first:
          name: _RefractMap
        second:
          m_Texture: {fileID: 0}
          m_Scale: {x: 1, y: 1}
          m_Offset: {x: 0, y: 0}
    m_Floats:
      data:
        first:
          name: _BumpAmt
        second: 40.5671654
      data:
        first:
          name: _Shininess
        second: .078125
      data:
        first:
          name: _SunSpecular
        second: 1.5
      data:
        first:
          name: _SunShine
        second: 100
      data:
        first:
          name: _FlowMapOffset0
        second: 7.25000954
      data:
        first:
          name: _FlowMapOffset1
        second: 7.25000954
    m_Colors:
      data:
        first:
          name: _Color
        second: {r: 1, g: 1, b: 1, a: .5}
      data:
        first:
          name: _SpecColor
        second: {r: .5, g: .5, b: .5, a: 1}
      data:
        first:
          name: _SunColor
        second: {r: 1, g: .800000012, b: .400000006, a: 1}
      data:
        first:
          name: _SunDirection
        second: {r: .369195879, g: .0500645526, b: -.928002179, a: 0}
      data:
        first:
          name: _WaterColor
        second: {r: 469.164886, g: 60.2386475, b: 140.744614, a: 0}
      data:
        first:
          name: _EyePos
        second: {r: 469.164886, g: 60.2386475, b: 140.744614, a: 0}
--- !u!1002 &2100001
EditorExtensionImpl:
  serializedVersion: 6
