%YAML 1.1
%TAG !u! tag:unity3d.com,2011:
--- !u!21 &2100000
Material:
  serializedVersion: 3
  m_ObjectHideFlags: 0
  m_PrefabParentObject: {fileID: 0}
  m_PrefabInternal: {fileID: 0}
  m_Name: PC_Dif
  m_Shader: {fileID: 13, guid: 0000000000000000e000000000000000, type: 0}
  m_ShaderKeywords: []
  m_SavedProperties:
    serializedVersion: 2
    m_TexEnvs:
      data:
        first:
          name: _MainTex
        second:
          m_Texture: {fileID: 2800000, guid: 7e56a72dfaeb1f74a91bca0c522ddcf2, type: 3}
          m_Scale: {x: 1, y: 1}
          m_Offset: {x: 0, y: 0}
      data:
        first:
          name: _BumpMap
        second:
          m_Texture: {fileID: 2800000, guid: 60777246830460e448aaa7036eb250bc, type: 3}
          m_Scale: {x: 1, y: 1}
          m_Offset: {x: 0, y: 0}
      data:
        first:
          name: _Illum
        second:
          m_Texture: {fileID: 2800000, guid: a3d577a4fe4614a40861088fca1b06ff, type: 3}
          m_Scale: {x: 1, y: 1}
          m_Offset: {x: 0, y: 0}
    m_Floats:
      data:
        first:
          name: _Shininess
        second: .47339645
      data:
        first:
          name: _EmissionLM
        second: 0
    m_Colors:
      data:
        first:
          name: _Color
        second: {r: .455223858, g: .455223858, b: .455223858, a: 1}
      data:
        first:
          name: _SpecColor
        second: {r: .619403005, g: .619403005, b: .619403005, a: 1}
